week_ending	count		week_ending	count		week_ending	count		week	2018	2019	2018-2019 mean	2020		0-14 population	Year				Fisher's exact text			Total admissions		Grand total
07/01/2018	35		06/01/2019	37		05/01/2020	42		1	4.042779538	4.273973236	4.158376387	4.899061567		860478	2016									
14/01/2018	46		13/01/2019	42		12/01/2020	48		2	5.313367393	4.851537186	5.08245229	5.598927505		864154	2017				2020	2018-2019				
21/01/2018	47		20/01/2019	54		19/01/2020	34		3	5.42887538	6.237690668	5.833283024	3.965906983		865741	2018			Admitted	839	1641		2480		54076
28/01/2018	40		27/01/2019	38		26/01/2020	65		4	4.620319472	4.389486026	4.504902749	7.581880997		865705	2019			Not admitted	856468.0459	1729805				
04/02/2018	47		03/02/2019	44		02/02/2020	56		5	5.42887538	5.082562767	5.255719073	6.53208209		857307.0459	2020									
11/02/2018	39		10/02/2019	32		09/02/2020	39		6	4.504811485	3.696409285	4.100610385	4.549128598												
18/02/2018	43		17/02/2019	44		16/02/2020	46		7	4.966843432	5.082562767	5.0247031	5.365638859												
25/02/2018	49		24/02/2019	56		23/02/2020	38		8	5.659891353	6.468716249	6.064303801	4.432484275												
04/03/2018	34		03/03/2019	48		01/03/2020	35		9	3.927271551	5.544613927	4.735942739	4.082551306												
11/03/2018	39		10/03/2019	44		08/03/2020	57		10	4.504811485	5.082562767	4.793687126	6.648726413												
18/03/2018	38		17/03/2019	50		15/03/2020	53		11	4.389303498	5.775639508	5.082471503	6.182149121												
25/03/2018	57		24/03/2019	60		22/03/2020	30		12	6.583955248	6.930767409	6.757361328	3.499329691												
01/04/2018	41		31/03/2019	40		29/03/2020	20		13	4.735827459	4.620511606	4.678169532	2.332886461												
08/04/2018	32		07/04/2019	44		05/04/2020	33		14	3.696255578	5.082562767	4.389409172	3.84926266												
15/04/2018	44		14/04/2019	27		12/04/2020	25		15	5.082351419	3.118845334	4.100598377	2.916108076												
22/04/2018	35		21/04/2019	44		19/04/2020	32		16	4.042779538	5.082562767	4.562671152	3.732618337												
29/04/2018	42		28/04/2019	53		26/04/2020	34		17	4.851335446	6.122177878	5.486756662	3.965906983												
06/05/2018	38		05/05/2019	43		03/05/2020	39		18	4.389303498	4.967049977	4.678176737	4.549128598												
13/05/2018	41		12/05/2019	44		10/05/2020	53		19	4.735827459	5.082562767	4.909195113	6.182149121												
20/05/2018	55		19/05/2019	50		17/05/2020	44		20	6.352939274	5.775639508	6.064289391	5.132350213												
27/05/2018	38		26/05/2019	47		24/05/2020	38		21	4.389303498	5.429101137	4.909202318	4.432484275												
03/06/2018	34		02/06/2019	48		31/05/2020	47		22	3.927271551	5.544613927	4.735942739	5.482283182												
10/06/2018	56		09/06/2019	34		07/06/2020	47		23	6.468447261	3.927434865	5.197941063	5.482283182												
17/06/2018	38		16/06/2019	41		14/06/2020	46		24	4.389303498	4.736024396	4.562663947	5.365638859												
24/06/2018	39		23/06/2019	43		21/06/2020	30		25	4.504811485	4.967049977	4.735930731	3.499329691												
01/07/2018	41		30/06/2019	46		28/06/2020	48		26	4.735827459	5.313588347	5.024707903	5.598927505												
08/07/2018	33		07/07/2019	43		05/07/2020	51		27	3.811763564	4.967049977	4.389406771	5.948860475												
15/07/2018	21		14/07/2019	50		12/07/2020	48		28	2.425667723	5.775639508	4.100653615	5.598927505												
22/07/2018	37		21/07/2019	42		19/07/2020	40		29	4.273795512	4.851537186	4.562666349	4.665772921												
29/07/2018	35		28/07/2019	39		26/07/2020	55		30	4.042779538	4.504998816	4.273889177	6.415437767												
05/08/2018	36		04/08/2019	46		02/08/2020	56		31	4.158287525	5.313588347	4.735937936	6.53208209												
12/08/2018	47		11/08/2019	34		09/08/2020	53		32	5.42887538	3.927434865	4.678155122	6.182149121												
19/08/2018	53		18/08/2019	40		16/08/2020	70		33	6.1219233	4.620511606	5.371217453	8.165102612												
26/08/2018	46		25/08/2019	39		23/08/2020	54		34	5.313367393	4.504998816	4.909183104	6.298793444												
02/09/2018	63		01/09/2019	62		30/08/2020	60		35	7.277003168	7.16179299	7.219398079	6.998659382												
09/09/2018	35		08/09/2019	46		06/09/2020	49		36	4.042779538	5.313588347	4.678183943	5.715571828												
16/09/2018	41		15/09/2019	43		13/09/2020	53		37	4.735827459	4.967049977	4.851438718	6.182149121												
23/09/2018	38		22/09/2019	26																					
30/09/2018	40		29/09/2019	45																					
07/10/2018	39		06/10/2019	40																					
14/10/2018	36		13/10/2019	54																					
21/10/2018	38		20/10/2019	42																					
28/10/2018	34		27/10/2019	33																					
04/11/2018	40		03/11/2019	46																					
11/11/2018	52		10/11/2019	37																					
18/11/2018	41		17/11/2019	53																					
25/11/2018	37		24/11/2019	50																					
02/12/2018	43		01/12/2019	51																					
09/12/2018	47		08/12/2019	43																					
16/12/2018	37		15/12/2019	45																					
23/12/2018	44		22/12/2019	43																					
30/12/2018	30		29/12/2019	42																					
